{
    "editor": [
        {
            "icon": "",
            "key": "settings",
            "header": "Settings",
            "disabled": false,
            "fields": [
                {
                    "key": "image",
                    "header": "Image",
                    "type": "image"
                },
                {
                    "key": "headline",
                    "header": "Header",
                    "type": "text"
                },
                {
                    "key": "description",
                    "header": "Description",
                    "type": "text"
                },
                {
                    "key": "price",
                    "header": "Price",
                    "type": "text"
                }
            ]
        }
    ],
    "config": {
        "settings": {
            "image": "http://frontend.apps.playcent.com/0e9c87fa3f5948f9a15de0597099d8e6/assets/itachi.jpeg",
            "headline": "Sandeep ART",
            "description": "Prodigy of Uchiha Clan",
            "price": "20"
        }
    }
}